Code & Analysis for AEN Manuscript
…
plot2 <- ggarrange(plot2a, plot2b, plot2c, plot2d, ncol = 2, nrow = 2, align = "hv",
                   labels = "AUTO", hjust = -2.5)
ggsave(filename = "plot2.png", plot = plot2, width = 12, height = 8)

Manually review the sightings >100km from range edge and within the mapped area (mainland Australia and the Torres Strait):

sightings_processed %>% 
  filter(distance > 1e5, in_buffer == TRUE)

Simple feature collection with 1170 features and 47 fields
Geometry type: POINT
Dimension:     XY
Bounding box:  xmin: -2021065 ymin: -4897799 xmax: 1900681 ymax: -1270194
Projected CRS: GDA94 / Geoscience Australia Lambert
# A tibble: 1,170 × 48
          id observed_on_string   observed_on time_observed_at time_zone user_id
 *     <dbl> <chr>                <date>      <chr>            <chr>       <dbl>
 1 213275291 2024/03/15 3:15 PM   2024-03-15  2024-03-15 05:1… Brisbane  5422187
 2  66853618 2020/12/19 8:36 AM … 2020-12-19  2020-12-19 00:3… Perth     2584176
 3  69123033 2015-02-28T00:46:00… 2015-02-28  2015-02-28 00:4… Sydney    2437108
 4  69244201 2021-02-05 11:25:15… 2021-02-05  2021-02-05 00:2… Asia/Mag… 3705101
 5 104888972 Fri Jan 14 2022 10:… 2022-01-14  2022-01-13 23:2… Magadan   2826845
 6 107817495 2004/03/21 11:03 AM… 2004-03-21  2004-03-21 00:0… Sydney    5395708
 7 196389986 2024-01-12 09:42:35… 2024-01-12  2024-01-11 23:4… Brisbane  3963156
 8 219898679 2024-05-31 08:58:26… 2024-05-31  2024-05-31 00:5… Perth     4957927
 9 196306022 2024-01-11 07:25:55… 2024-01-11  2024-01-10 21:2… Brisbane  3963156
10 196336543 2024-01-11 07:43:00… 2024-01-11  2024-01-10 21:4… Brisbane  3963156
# ℹ 1,160 more rows
# ℹ 42 more variables: user_login <chr>, user_name <chr>, created_at <chr>,
#   updated_at <chr>, quality_grade <chr>, license <chr>, url <chr>,
#   image_url <chr>, sound_url <lgl>, tag_list <chr>, description <chr>,
#   num_identification_agreements <dbl>,
#   num_identification_disagreements <dbl>, captive_cultivated <lgl>,
#   oauth_application_id <dbl>, place_guess <chr>, latitude <dbl>, …

read_xlsx("Data/OutOfRangeSheet.xlsx")

# A tibble: 110 × 6
   Order ScientificName           Extension Expansion Vagrant Comment           
   <dbl> <chr>                        <dbl>     <dbl>   <dbl> <chr>             
 1     2 Graphium agamemnon               0         0       1 Vagrant record at…
 2     5 Graphium eurypylus               0         1       1 Expansion along S…
 3     8 Protographium leosthenes         1         0       1 Extension around …
 4     9 Papilio anactus                  0         0       1 Vagrant records i…
 5    11 Papilio aegeus                   1         1       0 Extension inland;…
 6    18 Cressida cressida                1         0       1 Extension inland;…
 7    20 Ornithoptera euphorion           0         0       0 Erroneous         
 8    21 Ornithoptera priamus             1         0       0 Extension around …
 9    25 Badamia exclamationis            0         0       1 Vagrant records n…
10    27 Hasora hurama                    0         0       1 Vagrant records n…
# ℹ 100 more rows
…
OutOfSeasons <- out_of_seasons %>% 
  filter(is_adult == TRUE) %>% 
  group_by(ScientificName, CommonName) %>% 
  summarise(NewMonths = paste(month.abb[unique(sort(month))], collapse = ", ")) %>%
  left_join(., rowid_to_column(select(master_list, ScientificName)), 
            by = "ScientificName") %>% 
  arrange(rowid) %>% 
  select(-rowid)

`summarise()` has grouped output by 'ScientificName'. You can override using
the `.groups` argument.

OutOfSeasons

# A tibble: 94 × 3
# Groups:   ScientificName [94]
   ScientificName           CommonName            NewMonths
   <chr>                    <chr>                 <chr>    
 1 Protographium leosthenes Four-barred Swordtail Aug      
 2 Papilio ambrax           Ambrax Swallowtail    Jul      
 3 Allora major             Greater Peacock Awl   Feb, Nov 
 4 Hasora hurama            Broad-banded Awl      Aug      
 5 Euschemon rafflesia      Regent Skipper        Jul      
 6 Netrocoryne repanda      Bronze Flat           Aug      
 7 Chaetocneme beata        Eastern Dusk-flat     May      
 8 Chaetocneme critomedia   Banded Dusk-flat      Jun, Aug 
 9 Chaetocneme porphyropis  Purple Dusk-flat      Jan, Aug 
10 Timoconia melania        Dark Grass-skipper    Jul, Nov 
# ℹ 84 more rows
…
